%EventDef PajeDefineContainerType 1
% Alias string 
% ContainerType string 
% Name string 
%EndEventDef 
%EventDef PajeDefineStateType 3
% Alias string 
% ContainerType string 
% Name string 
%EndEventDef 
%EventDef PajeDefineEntityValue 6
% Alias string  
% EntityType string  
% Name string  
% Color color 
%EndEventDef  
%EventDef PajeCreateContainer 7
% Time date  
% Alias string  
% Type string  
% Container string  
% Name string  
%EndEventDef  
%EventDef PajeDestroyContainer 8
% Time date  
% Name sting  
% Type string  
%EndEventDef  
%EventDef PajeSetState 10
% Time date  
% Type string  
% Container string  
% Value string  
%EndEventDef 
%EventDef PajeDefineLinkType 41
% Alias string
% Name string
% ContainerType string
% SourceContainerType string
% DestContainerType string
%EndEventDef
%EventDef PajeStartLink 42
% Time date
% Type string
% Container string
% SourceContainer string
% Value string
% Key string
%EndEventDef 
%EventDef PajeEndLink 43
% Time date
% Type string
% Container string
% DestContainer string
% Value string
% Key string
%EndEventDef 
%EventDef PajeDefineVariableType 50
% Alias string
% Name  string
% ContainerType string 
%EndEventDef 
%EventDef PajeSetVariable 51
% Time date 
% Type string 
% Container string 
% Value double 
%EndEventDef  
%EventDef PajeAddVariable 52
% Time date 
% Type string 
% Container string 
% Value double 
%EndEventDef  
%EventDef PajeSubVariable 53
% Time date 
% Type string 
% Container string 
% Value double 
%EndEventDef
1 CT_Net 0 "Network"
1 CT_Node CT_Net "Node"
1 CT_Proc CT_Node "Processor"
3 ST_ProcState CT_Proc "Etat du Processeur"
6 S_1 ST_ProcState "Repos" "0.500000 0.500000 0.500000"
6 S_2 ST_ProcState "WaitLocal" "0.000000 0.000000 0.000000"
6 S_3 ST_ProcState "WaitDistant" "0.200000 0.800000 0.200000"
6 S_4 ST_ProcState "Communication" "0.400000 0.100000 0.400000"
6 S_5 ST_ProcState "Compute" "1.000000 0.000000 0.000000"
6 S_6 ST_ProcState "lambda.x" "0.000000 1.000000 0.000000"
6 S_7 ST_ProcState "lambda.x+y" "0.000000 0.000000 1.000000"
6 S_8 ST_ProcState "A+B" "1.000000 1.000000 0.000000"
6 S_9 ST_ProcState "LDLt" "1.000000 0.000000 1.000000"
6 S_10 ST_ProcState "LLt" "0.000000 1.000000 1.000000"
6 S_11 ST_ProcState "A*B+C" "0.800000 0.200000 0.500000"
6 S_12 ST_ProcState "A^-1*B" "0.500000 0.200000 0.800000"
6 S_20 ST_ProcState "C0"  "1.000000 0.000000 0.000000"
6 S_21 ST_ProcState "C1"  "1.000000 0.000000 0.000000"
6 S_22 ST_ProcState "C2"  "1.000000 0.000000 0.000000"
6 S_23 ST_ProcState "C3"  "1.000000 0.000000 0.000000"
6 S_24 ST_ProcState "C4"  "1.000000 0.000000 0.000000"
6 S_25 ST_ProcState "C5"  "1.000000 0.000000 0.000000"
6 S_26 ST_ProcState "C6"  "1.000000 0.000000 0.000000"
6 S_27 ST_ProcState "C7"  "1.000000 0.000000 0.000000"
6 S_28 ST_ProcState "C8"  "1.000000 0.000000 0.000000"
6 S_29 ST_ProcState "C9"  "1.000000 0.000000 0.000000"
6 S_30 ST_ProcState "C10" "1.000000 0.000000 0.000000"
6 S_31 ST_ProcState "C11" "1.000000 0.000000 0.000000"
6 S_32 ST_ProcState "C12" "1.000000 0.000000 0.000000"
6 S_33 ST_ProcState "C13" "1.000000 0.000000 0.000000"
6 S_34 ST_ProcState "C14" "1.000000 0.000000 0.000000"
6 S_35 ST_ProcState "C15" "1.000000 0.000000 0.000000"
6 S_36 ST_ProcState "C16" "1.000000 0.000000 0.000000"
6 S_37 ST_ProcState "C17" "1.000000 0.000000 0.000000"
6 S_38 ST_ProcState "C18" "1.000000 0.000000 0.000000"
6 S_39 ST_ProcState "C19" "1.000000 0.000000 0.000000"
6 S_40 ST_ProcState "C20" "1.000000 0.000000 0.000000"
6 S_41 ST_ProcState "C21" "1.000000 0.000000 0.000000"
6 S_42 ST_ProcState "C22" "1.000000 0.000000 0.000000"
6 S_43 ST_ProcState "C23" "1.000000 0.000000 0.000000"
6 S_44 ST_ProcState "C24" "1.000000 0.000000 0.000000"
6 S_45 ST_ProcState "C25" "1.000000 0.000000 0.000000"
6 S_46 ST_ProcState "C26" "1.000000 0.000000 0.000000"
6 S_47 ST_ProcState "C27" "1.000000 0.000000 0.000000"
6 S_48 ST_ProcState "C28" "1.000000 0.000000 0.000000"
6 S_49 ST_ProcState "C29" "1.000000 0.000000 0.000000"
6 S_50 ST_ProcState "C30" "1.000000 0.000000 0.000000"
41 L_1 BSendRecv CT_Net CT_Proc CT_Proc
41 L_2 SSendRecv CT_Net CT_Proc CT_Proc
41 L_3 RSendRecv CT_Net CT_Proc CT_Proc
41 L_4 IBSendRecv CT_Net CT_Proc CT_Proc
41 L_5 ISSendRecv CT_Net CT_Proc CT_Proc
41 L_6 IRSendRecv CT_Net CT_Proc CT_Proc
7 0.000000 C_Net0 CT_Net 0 "Ensemble0"
7 0.000000 C_N0 CT_Node C_Net0 "Node0"
7 0.000000 C_P0 CT_Proc C_N0 "Proc0"
7 0.000000 C_P1 CT_Proc C_N0 "Proc1"
7 0.000000 C_P2 CT_Proc C_N0 "Proc2"
7 0.000000 C_P3 CT_Proc C_N0 "Proc3"
7 0.000000 C_P4 CT_Proc C_N0 "Proc4"
7 0.000000 C_P5 CT_Proc C_N0 "Proc5"
7 0.000000 C_P6 CT_Proc C_N0 "Proc6"
7 0.000000 C_P7 CT_Proc C_N0 "Proc7"
10 0.000000 ST_ProcState C_P6 S_3
10 0.000010 ST_ProcState C_P7 S_3
10 0.000017 ST_ProcState C_P5 S_3
10 0.000021 ST_ProcState C_P4 S_3
10 0.000029 ST_ProcState C_P2 S_3
10 0.000036 ST_ProcState C_P1 S_3
10 0.000054 ST_ProcState C_P3 S_3
10 0.000073 ST_ProcState C_P6 S_2
10 0.000080 ST_ProcState C_P6 S_38
10 0.000093 ST_ProcState C_P7 S_2
10 0.000100 ST_ProcState C_P7 S_29
10 0.000115 ST_ProcState C_P0 S_3
10 0.000163 ST_ProcState C_P5 S_2
10 0.000164 ST_ProcState C_P4 S_2
10 0.000170 ST_ProcState C_P5 S_37
10 0.000170 ST_ProcState C_P1 S_2
10 0.000171 ST_ProcState C_P4 S_43
10 0.000172 ST_ProcState C_P2 S_2
10 0.000175 ST_ProcState C_P3 S_2
10 0.000177 ST_ProcState C_P1 S_46
10 0.000179 ST_ProcState C_P2 S_27
10 0.000180 ST_ProcState C_P3 S_40
10 0.000206 ST_ProcState C_P0 S_2
10 0.000212 ST_ProcState C_P0 S_32
10 0.001180 ST_ProcState C_P6 S_1
10 0.001187 ST_ProcState C_P6 S_3
10 0.001192 ST_ProcState C_P6 S_2
10 0.001196 ST_ProcState C_P6 S_39
10 0.001400 ST_ProcState C_P2 S_1
10 0.001408 ST_ProcState C_P2 S_3
10 0.001412 ST_ProcState C_P2 S_2
10 0.001416 ST_ProcState C_P2 S_28
10 0.001621 ST_ProcState C_P5 S_1
10 0.001629 ST_ProcState C_P5 S_3
10 0.001633 ST_ProcState C_P5 S_2
10 0.001637 ST_ProcState C_P5 S_36
10 0.001655 ST_ProcState C_P6 S_1
10 0.001660 ST_ProcState C_P6 S_3
10 0.001664 ST_ProcState C_P6 S_2
10 0.001669 ST_ProcState C_P6 S_41
10 0.001984 ST_ProcState C_P0 S_1
10 0.001996 ST_ProcState C_P0 S_3
10 0.002001 ST_ProcState C_P0 S_2
10 0.002005 ST_ProcState C_P0 S_34
10 0.002007 ST_ProcState C_P1 S_1
10 0.002017 ST_ProcState C_P1 S_3
10 0.002021 ST_ProcState C_P1 S_2
10 0.002025 ST_ProcState C_P1 S_45
10 0.002105 ST_ProcState C_P7 S_1
10 0.002115 ST_ProcState C_P7 S_3
10 0.002119 ST_ProcState C_P7 S_2
10 0.002124 ST_ProcState C_P7 S_24
10 0.002485 ST_ProcState C_P2 S_1
10 0.002489 ST_ProcState C_P4 S_1
10 0.002493 ST_ProcState C_P2 S_3
10 0.002498 ST_ProcState C_P2 S_2
10 0.002500 ST_ProcState C_P4 S_3
10 0.002502 ST_ProcState C_P2 S_25
10 0.002504 ST_ProcState C_P4 S_2
10 0.002508 ST_ProcState C_P4 S_32
10 0.002607 ST_ProcState C_P1 S_1
10 0.002614 ST_ProcState C_P1 S_3
10 0.002618 ST_ProcState C_P1 S_2
10 0.002622 ST_ProcState C_P1 S_47
10 0.002654 ST_ProcState C_P7 S_1
10 0.002661 ST_ProcState C_P7 S_3
10 0.002665 ST_ProcState C_P7 S_2
10 0.002669 ST_ProcState C_P7 S_25
10 0.002766 ST_ProcState C_P5 S_1
10 0.002774 ST_ProcState C_P5 S_3
10 0.002778 ST_ProcState C_P5 S_2
10 0.002783 ST_ProcState C_P5 S_38
10 0.002985 ST_ProcState C_P2 S_1
10 0.002991 ST_ProcState C_P2 S_3
10 0.002995 ST_ProcState C_P2 S_2
10 0.003000 ST_ProcState C_P2 S_26
10 0.003187 ST_ProcState C_P3 S_1
10 0.003203 ST_ProcState C_P3 S_3
10 0.003208 ST_ProcState C_P3 S_2
10 0.003212 ST_ProcState C_P3 S_41
10 0.003543 ST_ProcState C_P2 S_1
10 0.003549 ST_ProcState C_P2 S_3
10 0.003553 ST_ProcState C_P2 S_2
10 0.003557 ST_ProcState C_P2 S_29
10 0.003560 ST_ProcState C_P4 S_1
10 0.003569 ST_ProcState C_P4 S_3
10 0.003573 ST_ProcState C_P4 S_2
10 0.003577 ST_ProcState C_P4 S_35
10 0.003583 ST_ProcState C_P6 S_1
10 0.003594 ST_ProcState C_P6 S_3
10 0.003599 ST_ProcState C_P6 S_2
10 0.003603 ST_ProcState C_P6 S_29
10 0.004002 ST_ProcState C_P6 S_1
10 0.004008 ST_ProcState C_P6 S_3
10 0.004012 ST_ProcState C_P6 S_2
10 0.004017 ST_ProcState C_P6 S_30
10 0.004075 ST_ProcState C_P4 S_1
10 0.004081 ST_ProcState C_P4 S_3
10 0.004086 ST_ProcState C_P4 S_2
10 0.004090 ST_ProcState C_P4 S_44
10 0.004180 ST_ProcState C_P0 S_1
10 0.004200 ST_ProcState C_P0 S_3
10 0.004205 ST_ProcState C_P0 S_2
10 0.004210 ST_ProcState C_P0 S_35
10 0.004793 ST_ProcState C_P7 S_1
10 0.004803 ST_ProcState C_P7 S_3
10 0.004808 ST_ProcState C_P7 S_2
10 0.004812 ST_ProcState C_P7 S_30
10 0.005634 ST_ProcState C_P4 S_1
10 0.005642 ST_ProcState C_P4 S_3
10 0.005646 ST_ProcState C_P4 S_2
10 0.005650 ST_ProcState C_P4 S_25
10 0.005661 ST_ProcState C_P6 S_1
10 0.005670 ST_ProcState C_P6 S_3
10 0.005674 ST_ProcState C_P6 S_2
10 0.005679 ST_ProcState C_P6 S_40
10 0.005828 ST_ProcState C_P2 S_1
10 0.005841 ST_ProcState C_P2 S_3
10 0.005846 ST_ProcState C_P2 S_2
10 0.005850 ST_ProcState C_P2 S_38
10 0.005882 ST_ProcState C_P7 S_1
10 0.005890 ST_ProcState C_P7 S_3
10 0.005894 ST_ProcState C_P7 S_2
10 0.005899 ST_ProcState C_P7 S_26
10 0.006096 ST_ProcState C_P3 S_1
10 0.006112 ST_ProcState C_P3 S_3
10 0.006117 ST_ProcState C_P3 S_2
10 0.006122 ST_ProcState C_P3 S_44
10 0.006211 ST_ProcState C_P0 S_1
10 0.006224 ST_ProcState C_P0 S_3
10 0.006229 ST_ProcState C_P0 S_2
10 0.006233 ST_ProcState C_P0 S_31
10 0.006234 ST_ProcState C_P5 S_1
10 0.006249 ST_ProcState C_P2 S_1
10 0.006256 ST_ProcState C_P2 S_3
10 0.006257 ST_ProcState C_P5 S_3
10 0.006260 ST_ProcState C_P2 S_2
10 0.006262 ST_ProcState C_P5 S_2
10 0.006265 ST_ProcState C_P2 S_46
10 0.006267 ST_ProcState C_P5 S_35
10 0.007022 ST_ProcState C_P0 S_1
10 0.007030 ST_ProcState C_P0 S_3
10 0.007035 ST_ProcState C_P0 S_2
10 0.007039 ST_ProcState C_P0 S_31
10 0.007182 ST_ProcState C_P3 S_1
10 0.007189 ST_ProcState C_P3 S_3
10 0.007194 ST_ProcState C_P3 S_2
10 0.007198 ST_ProcState C_P3 S_37
10 0.007234 ST_ProcState C_P1 S_1
10 0.007260 ST_ProcState C_P1 S_3
10 0.007265 ST_ProcState C_P1 S_2
10 0.007269 ST_ProcState C_P1 S_42
10 0.007448 ST_ProcState C_P5 S_1
10 0.007456 ST_ProcState C_P5 S_3
10 0.007461 ST_ProcState C_P5 S_2
10 0.007465 ST_ProcState C_P5 S_39
10 0.008035 ST_ProcState C_P4 S_1
10 0.008053 ST_ProcState C_P4 S_3
10 0.008057 ST_ProcState C_P4 S_2
10 0.008062 ST_ProcState C_P4 S_26
10 0.008172 ST_ProcState C_P0 S_1
10 0.008181 ST_ProcState C_P0 S_3
10 0.008185 ST_ProcState C_P0 S_2
10 0.008189 ST_ProcState C_P0 S_33
10 0.008245 ST_ProcState C_P3 S_1
10 0.008251 ST_ProcState C_P3 S_3
10 0.008256 ST_ProcState C_P3 S_2
10 0.008260 ST_ProcState C_P3 S_39
10 0.008548 ST_ProcState C_P1 S_1
10 0.008557 ST_ProcState C_P1 S_3
10 0.008561 ST_ProcState C_P1 S_2
10 0.008565 ST_ProcState C_P1 S_44
10 0.008584 ST_ProcState C_P7 S_1
10 0.008599 ST_ProcState C_P7 S_3
10 0.008604 ST_ProcState C_P7 S_2
10 0.008609 ST_ProcState C_P7 S_28
10 0.008728 ST_ProcState C_P2 S_1
10 0.008741 ST_ProcState C_P2 S_3
10 0.008746 ST_ProcState C_P2 S_2
10 0.008750 ST_ProcState C_P2 S_47
10 0.009387 ST_ProcState C_P3 S_1
10 0.009395 ST_ProcState C_P3 S_3
10 0.009399 ST_ProcState C_P3 S_2
10 0.009404 ST_ProcState C_P3 S_42
10 0.009429 ST_ProcState C_P6 S_1
10 0.009442 ST_ProcState C_P7 S_1
10 0.009448 ST_ProcState C_P7 S_3
10 0.009453 ST_ProcState C_P7 S_2
10 0.009454 ST_ProcState C_P6 S_3
10 0.009457 ST_ProcState C_P7 S_31
10 0.009459 ST_ProcState C_P6 S_2
10 0.009463 ST_ProcState C_P6 S_42
10 0.009474 ST_ProcState C_P4 S_1
10 0.009482 ST_ProcState C_P4 S_3
10 0.009487 ST_ProcState C_P4 S_2
10 0.009491 ST_ProcState C_P4 S_45
10 0.009617 ST_ProcState C_P2 S_1
10 0.009623 ST_ProcState C_P2 S_3
10 0.009627 ST_ProcState C_P2 S_2
10 0.009632 ST_ProcState C_P2 S_48
10 0.009748 ST_ProcState C_P1 S_1
10 0.009756 ST_ProcState C_P1 S_3
10 0.009760 ST_ProcState C_P1 S_2
10 0.009764 ST_ProcState C_P1 S_48
10 0.010095 ST_ProcState C_P4 S_1
10 0.010102 ST_ProcState C_P4 S_3
10 0.010106 ST_ProcState C_P4 S_2
10 0.010110 ST_ProcState C_P4 S_46
10 0.010431 ST_ProcState C_P4 S_1
10 0.010437 ST_ProcState C_P4 S_3
10 0.010441 ST_ProcState C_P4 S_2
10 0.010445 ST_ProcState C_P4 S_47
10 0.011001 ST_ProcState C_P6 S_1
10 0.011009 ST_ProcState C_P6 S_3
10 0.011014 ST_ProcState C_P6 S_2
10 0.011018 ST_ProcState C_P6 S_45
10 0.011340 ST_ProcState C_P2 S_1
10 0.011348 ST_ProcState C_P2 S_3
10 0.011353 ST_ProcState C_P2 S_2
10 0.011357 ST_ProcState C_P2 S_30
10 0.011485 ST_ProcState C_P4 S_1
10 0.011491 ST_ProcState C_P4 S_3
10 0.011495 ST_ProcState C_P4 S_2
10 0.011499 ST_ProcState C_P4 S_25
10 0.012922 ST_ProcState C_P6 S_1
10 0.012931 ST_ProcState C_P6 S_3
10 0.012936 ST_ProcState C_P6 S_2
10 0.012941 ST_ProcState C_P6 S_27
10 0.013054 ST_ProcState C_P7 S_1
10 0.013072 ST_ProcState C_P7 S_3
10 0.013077 ST_ProcState C_P7 S_2
10 0.013082 ST_ProcState C_P7 S_23
10 0.013253 ST_ProcState C_P4 S_1
10 0.013262 ST_ProcState C_P4 S_3
10 0.013266 ST_ProcState C_P4 S_2
10 0.013270 ST_ProcState C_P4 S_47
10 0.013352 ST_ProcState C_P6 S_1
10 0.013358 ST_ProcState C_P6 S_3
10 0.013362 ST_ProcState C_P6 S_2
10 0.013367 ST_ProcState C_P6 S_28
10 0.013590 ST_ProcState C_P1 S_1
10 0.013615 ST_ProcState C_P1 S_3
10 0.013619 ST_ProcState C_P1 S_2
10 0.013624 ST_ProcState C_P1 S_30
10 0.014041 ST_ProcState C_P1 S_1
10 0.014047 ST_ProcState C_P1 S_3
10 0.014052 ST_ProcState C_P1 S_2
10 0.014056 ST_ProcState C_P1 S_38
10 0.014090 ST_ProcState C_P4 S_1
10 0.014096 ST_ProcState C_P4 S_3
10 0.014100 ST_ProcState C_P4 S_2
10 0.014104 ST_ProcState C_P4 S_31
10 0.014291 ST_ProcState C_P5 S_1
10 0.014319 ST_ProcState C_P5 S_3
10 0.014323 ST_ProcState C_P5 S_2
10 0.014328 ST_ProcState C_P5 S_40
10 0.014439 ST_ProcState C_P1 S_1
10 0.014445 ST_ProcState C_P1 S_3
10 0.014449 ST_ProcState C_P1 S_2
10 0.014453 ST_ProcState C_P1 S_39
10 0.014455 ST_ProcState C_P6 S_1
10 0.014461 ST_ProcState C_P6 S_3
10 0.014465 ST_ProcState C_P6 S_2
10 0.014470 ST_ProcState C_P6 S_31
10 0.014728 ST_ProcState C_P0 S_1
10 0.014759 ST_ProcState C_P0 S_3
10 0.014764 ST_ProcState C_P0 S_2
10 0.014769 ST_ProcState C_P0 S_36
10 0.014826 ST_ProcState C_P2 S_1
10 0.014847 ST_ProcState C_P2 S_3
10 0.014852 ST_ProcState C_P2 S_2
10 0.014856 ST_ProcState C_P2 S_37
10 0.014976 ST_ProcState C_P3 S_1
10 0.014998 ST_ProcState C_P3 S_3
10 0.015003 ST_ProcState C_P3 S_2
10 0.015008 ST_ProcState C_P3 S_45
10 0.015227 ST_ProcState C_P1 S_1
10 0.015233 ST_ProcState C_P1 S_3
10 0.015238 ST_ProcState C_P1 S_2
10 0.015242 ST_ProcState C_P1 S_41
10 0.015295 ST_ProcState C_P4 S_1
10 0.015304 ST_ProcState C_P4 S_3
10 0.015308 ST_ProcState C_P4 S_2
10 0.015312 ST_ProcState C_P4 S_33
10 0.015762 ST_ProcState C_P1 S_1
10 0.015769 ST_ProcState C_P1 S_3
10 0.015773 ST_ProcState C_P1 S_2
10 0.015777 ST_ProcState C_P1 S_43
10 0.015947 ST_ProcState C_P7 S_1
10 0.015961 ST_ProcState C_P7 S_3
10 0.015966 ST_ProcState C_P7 S_2
10 0.015971 ST_ProcState C_P7 S_27
10 0.016071 ST_ProcState C_P2 S_1
10 0.016078 ST_ProcState C_P2 S_3
10 0.016083 ST_ProcState C_P2 S_2
10 0.016090 ST_ProcState C_P2 S_39
10 0.016659 ST_ProcState C_P6 S_1
10 0.016674 ST_ProcState C_P6 S_3
10 0.016678 ST_ProcState C_P6 S_2
10 0.016683 ST_ProcState C_P6 S_37
10 0.017651 ST_ProcState C_P2 S_1
10 0.017661 ST_ProcState C_P2 S_3
10 0.017665 ST_ProcState C_P2 S_2
10 0.017669 ST_ProcState C_P2 S_45
10 0.018239 ST_ProcState C_P3 S_1
10 0.018258 ST_ProcState C_P3 S_3
10 0.018263 ST_ProcState C_P3 S_2
10 0.018268 ST_ProcState C_P3 S_46
10 0.018859 ST_ProcState C_P6 S_1
10 0.018870 ST_ProcState C_P6 S_3
10 0.018874 ST_ProcState C_P6 S_2
10 0.018879 ST_ProcState C_P6 S_43
10 0.018958 ST_ProcState C_P4 S_1
10 0.018982 ST_ProcState C_P4 S_3
10 0.018986 ST_ProcState C_P4 S_2
10 0.018990 ST_ProcState C_P4 S_36
10 0.019001 ST_ProcState C_P2 S_1
10 0.019009 ST_ProcState C_P2 S_3
10 0.019014 ST_ProcState C_P2 S_2
10 0.019018 ST_ProcState C_P2 S_49
10 0.019134 ST_ProcState C_P3 S_1
10 0.019140 ST_ProcState C_P3 S_3
10 0.019145 ST_ProcState C_P3 S_2
10 0.019149 ST_ProcState C_P3 S_47
10 0.019412 ST_ProcState C_P1 S_1
10 0.019436 ST_ProcState C_P1 S_3
10 0.019441 ST_ProcState C_P1 S_2
10 0.019445 ST_ProcState C_P1 S_49
10 0.019480 ST_ProcState C_P0 S_1
10 0.019511 ST_ProcState C_P0 S_3
10 0.019515 ST_ProcState C_P0 S_2
10 0.019520 ST_ProcState C_P0 S_32
10 0.019785 ST_ProcState C_P3 S_1
10 0.019793 ST_ProcState C_P3 S_3
10 0.019797 ST_ProcState C_P3 S_2
10 0.019802 ST_ProcState C_P3 S_43
10 0.020779 ST_ProcState C_P7 S_1
10 0.020800 ST_ProcState C_P7 S_3
10 0.020805 ST_ProcState C_P7 S_2
10 0.020810 ST_ProcState C_P7 S_32
10 0.020989 ST_ProcState C_P4 S_1
10 0.021001 ST_ProcState C_P4 S_3
10 0.021005 ST_ProcState C_P4 S_2
10 0.021009 ST_ProcState C_P4 S_37
10 0.021385 ST_ProcState C_P3 S_1
10 0.021396 ST_ProcState C_P3 S_3
10 0.021400 ST_ProcState C_P3 S_2
10 0.021405 ST_ProcState C_P3 S_38
10 0.021432 ST_ProcState C_P2 S_1
10 0.021456 ST_ProcState C_P2 S_3
10 0.021460 ST_ProcState C_P2 S_2
10 0.021465 ST_ProcState C_P2 S_31
10 0.022347 ST_ProcState C_P0 S_1
10 0.022366 ST_ProcState C_P0 S_3
10 0.022370 ST_ProcState C_P0 S_2
10 240.797107 ST_ProcState C_P1 S_3
10 240.797112 ST_ProcState C_P1 S_2
10 240.802877 ST_ProcState C_P2 S_41
10 240.805512 ST_ProcState C_P6 S_1
8 240.805539 C_P6 CT_Proc
10 240.813324 ST_ProcState C_P5 S_1
8 240.813351 C_P5 CT_Proc
10 240.814526 ST_ProcState C_P4 S_42
10 240.819253 ST_ProcState C_P7 S_1
8 240.819275 C_P7 CT_Proc
10 240.823492 ST_ProcState C_P0 S_43
10 240.824440 ST_ProcState C_P2 S_1
8 240.824466 C_P2 CT_Proc
10 240.828752 ST_ProcState C_P4 S_1
8 240.828781 C_P4 CT_Proc
10 240.830353 ST_ProcState C_P3 S_44
10 240.832261 ST_ProcState C_P0 S_1
8 240.832290 C_P0 CT_Proc
10 240.834659 ST_ProcState C_P3 S_1
10 240.834661 ST_ProcState C_P1 S_45
8 240.834674 C_P3 CT_Proc
10 240.836148 ST_ProcState C_P1 S_1
8 240.836155 C_P1 CT_Proc
